Text Analysis – RESM3002 Workshops
…
read_categ <- function(categ, dir_to_read){
  file.path(dir_to_read, categ) %>% 
    list.files %>% 
    map_chr(~read_file(file.path(dir_to_read,categ, .))) %>% 
    tibble(text=.) %>% mutate(Category=categ)
}

cat1_df <- read_categ(categories[1], base_path)
cat1_df

# A tibble: 510 × 2
   text                                                                 Category
   <chr>                                                                <chr>   
 1 "Ad sales boost Time Warner profit\n\nQuarterly profits at US media… business
 2 "Dollar gains on Greenspan speech\n\nThe dollar has hit its highest… business
 3 "Yukos unit buyer faces loan claim\n\nThe owners of embattled Russi… business
 4 "High fuel prices hit BA's profits\n\nBritish Airways has blamed hi… business
 5 "Pernod takeover talk lifts Domecq\n\nShares in UK drinks and food … business
 6 "Japan narrowly escapes recession\n\nJapan's economy teetered on th… business
 7 "Jobs growth still slow in the US\n\nThe US created fewer jobs than… business
 8 "India calls for fair trade rules\n\nIndia, which attends the G7 me… business
 9 "Ethiopia's crop production up 24%\n\nEthiopia produced 14.27 milli… business
10 "Court rejects $280bn tobacco case\n\nA US government claim accusin… business
# ℹ 500 more rows

tic <- Sys.time()
data_df <- map_df(categories, read_categ, base_path) %>% 
  # add unique id
  mutate(doc_id=1:n())
data_df

# A tibble: 2,225 × 3
   text                                                          Category doc_id
   <chr>                                                         <chr>     <int>
 1 "Ad sales boost Time Warner profit\n\nQuarterly profits at U… business      1
 2 "Dollar gains on Greenspan speech\n\nThe dollar has hit its … business      2
 3 "Yukos unit buyer faces loan claim\n\nThe owners of embattle… business      3
 4 "High fuel prices hit BA's profits\n\nBritish Airways has bl… business      4
 5 "Pernod takeover talk lifts Domecq\n\nShares in UK drinks an… business      5
 6 "Japan narrowly escapes recession\n\nJapan's economy teetere… business      6
 7 "Jobs growth still slow in the US\n\nThe US created fewer jo… business      7
 8 "India calls for fair trade rules\n\nIndia, which attends th… business      8
 9 "Ethiopia's crop production up 24%\n\nEthiopia produced 14.2… business      9
10 "Court rejects $280bn tobacco case\n\nA US government claim … business     10
# ℹ 2,215 more rows

toc <- Sys.time

token_df <- data_df %>% 
  unnest_tokens(word, text) %>% 
  group_by(word) %>%
  filter(n() > 10) %>%
  ungroup()

token_df

# A tibble: 793,016 × 3
   Category doc_id word     
   <chr>     <int> <chr>    
 1 business      1 ad       
 2 business      1 sales    
 3 business      1 boost    
 4 business      1 time     
 5 business      1 warner   
 6 business      1 profit   
 7 business      1 quarterly
 8 business      1 profits  
 9 business      1 at       
10 business      1 us       
# ℹ 793,006 more rows

token_df %>% 
  count(Category, word) %>%
  group_by(Category) %>%
  arrange(Category, -n) %>% top_n(5)

Selecting by n

# A tibble: 25 × 3
# Groups:   Category [5]
   Category      word      n
   <chr>         <chr> <int>
 1 business      the   10819
 2 business      to     5086
 3 business      of     4383
 4 business      in     4332
 5 business      a      3443
 6 entertainment the    8269
 7 entertainment and    3019
 8 entertainment of     2973
 9 entertainment to     2903
10 entertainment in     2817
# ℹ 15 more rows

# nice convenience function from tidytext
stops <- get_stopwords()

stops

# A tibble: 175 × 2
   word      lexicon 
   <chr>     <chr>   
 1 i         snowball
 2 me        snowball
 3 my        snowball
 4 myself    snowball
 5 we        snowball
 6 our       snowball
 7 ours      snowball
 8 ourselves snowball
 9 you       snowball
10 your      snowball
# ℹ 165 more rows

# antijoin finds everything in token_df NOT in stop, on shared column word
token_df <- token_df %>% anti_join(stops)

Joining with `by = join_by(word)`

token_df %>% 
  count(Category, word) %>%
  group_by(Category) %>%
  arrange(Category, -n) %>% top_n(5)

Selecting by n

# A tibble: 25 × 3
# Groups:   Category [5]
   Category      word      n
   <chr>         <chr> <int>
 1 business      said   1680
 2 business      us      817
 3 business      year    686
 4 business      mr      600
 5 business      also    440
 6 entertainment said    825
 7 entertainment film    767
 8 entertainment best    619
 9 entertainment music   430
10 entertainment also    398
# ℹ 15 more rows
…
