RESM3002 Workshops - Text Analysis
…
  # code below creates a dataframe with column names "Category" and "text"
  cat_df <- tibble(Category=category, text=category_articles)
  return(cat_df)
}

Let’s try this on a different category

categories[3]

[1] "politics"

pol_df <- read_category(categories[3], base_path)
pol_df

# A tibble: 417 × 2
   Category text                                                                
   <chr>    <chr>                                                               
 1 politics "Labour plans maternity pay rise\n\nMaternity pay for new mothers i…
 2 politics "Watchdog probes e-mail deletions\n\nThe information commissioner s…
 3 politics "Hewitt decries 'career sexism'\n\nPlans to extend paid maternity l…
 4 politics "Labour chooses Manchester\n\nThe Labour Party will hold its 2006 a…
 5 politics "Brown ally rejects Budget spree\n\nChancellor Gordon Brown's close…
 6 politics "'Errors' doomed first Dome sale\n\nThe initial attempt to sell the…
 7 politics "Fox attacks Blair's Tory 'lies'\n\nTony Blair lied when he took th…
 8 politics "Women MPs reveal sexist taunts\n\nWomen MPs endure \"shocking\" le…
 9 politics "Campbell: E-mail row 'silly fuss'\n\nEx-No 10 media chief Alastair…
10 politics "Crucial decision on super-casinos\n\nA decision on whether to allo…
# ℹ 407 more rows
…
The below code may take a little time to run (but hopefully not too long). Reading lots of small files from disk is generally less efficient than reading one medium size file.

Note that we also add a doc_id column, which gives each article a unique identification number, using the n() function to identify the maximum number of rows, and creating a sequence from 1 to this number (2225 in this case).

# note that any additional arguments to read_category that do not change with each
# iteration (in this case, base_path) can be given to map after the name of the function
data_df <- map_df(categories, read_category, base_path) %>% 
  # add unique id
  mutate(doc_id=1:n()) %>% 
  # reorder columns for convenience
  select(doc_id, Category, text)
data_df

# A tibble: 2,225 × 3
   doc_id Category text                                                         
    <int> <chr>    <chr>                                                        
 1      1 business "Ad sales boost Time Warner profit\n\nQuarterly profits at U…
 2      2 business "Dollar gains on Greenspan speech\n\nThe dollar has hit its …
 3      3 business "Yukos unit buyer faces loan claim\n\nThe owners of embattle…
 4      4 business "High fuel prices hit BA's profits\n\nBritish Airways has bl…
 5      5 business "Pernod takeover talk lifts Domecq\n\nShares in UK drinks an…
 6      6 business "Japan narrowly escapes recession\n\nJapan's economy teetere…
 7      7 business "Jobs growth still slow in the US\n\nThe US created fewer jo…
 8      8 business "India calls for fair trade rules\n\nIndia, which attends th…
 9      9 business "Ethiopia's crop production up 24%\n\nEthiopia produced 14.2…
10     10 business "Court rejects $280bn tobacco case\n\nA US government claim …
# ℹ 2,215 more rows

Tidying Text Data

The package tidytext has some nice tools for dealing with text data. The first of these is the unnest_tokens. This first splits each element in our column containing text into tokens, and then outputs a tidy data frame with one word per row.

token_df <- data_df %>% 
  unnest_tokens(word, text, strip_numeric=TRUE)

token_df

# A tibble: 847,351 × 3
   doc_id Category word     
    <int> <chr>    <chr>    
 1      1 business ad       
 2      1 business sales    
 3      1 business boost    
 4      1 business time     
 5      1 business warner   
 6      1 business profit   
 7      1 business quarterly
 8      1 business profits  
 9      1 business at       
10      1 business us       
# ℹ 847,341 more rows

This allows us to easily do some exploratory analysis. For instance, we can find the most frequent words:

words_by_frequency <- token_df %>% count(word) %>% arrange(-n) 
words_by_frequency

# A tibble: 30,773 × 2
   word      n
   <chr> <int>
 1 the   52634
 2 to    25113
 3 of    20008
 4 and   18611
 5 a     18318
 6 in    17725
 7 for    8945
 8 is     8555
 9 that   8055
10 on     7624
# ℹ 30,763 more rows
…
This is a relatively small corpus, but there does seem to be an approximately log-linear relationship here.

We probably want to exclude the most frequent words from our dataset. Don’t worry about the lexicon column.

# nice convenience function from tidytext
stops <- get_stopwords()

stops

# A tibble: 175 × 2
   word      lexicon 
   <chr>     <chr>   
 1 i         snowball
 2 me        snowball
 3 my        snowball
 4 myself    snowball
 5 we        snowball
 6 our       snowball
 7 ours      snowball
 8 ourselves snowball
 9 you       snowball
10 your      snowball
# ℹ 165 more rows
…
# antijoin finds everything in token_df NOT in stop, looking at the shared column 'word'
token_df <- token_df %>% anti_join(stops)

Joining with `by = join_by(word)`

# lets find the top 5 words by category, now we've excluded the stops.
token_df %>% 
  count(Category, word) %>%
  group_by(Category) %>%
  arrange(Category, -n) %>% top_n(10)

Selecting by n

# A tibble: 51 × 3
# Groups:   Category [5]
   Category word        n
   <chr>    <chr>   <int>
 1 business said     1680
 2 business us        817
 3 business year      686
 4 business mr        600
 5 business also      440
 6 business market    429
 7 business new       417
 8 business growth    385
 9 business company   367
10 business last      367
# ℹ 41 more rows
…
# get only the rows
sparse_train_dtm <- sparse_dtm[train_ids$doc_id,]
sparse_test_dtm <- sparse_dtm[test_ids$doc_id,]

We are going to fit a Lasso model to this data. We therefore need the correct category label as well as the document term matrix.

 # get elements from data that have doc_ids in the dataframe 'train_ids'
output_train_labels <- train_ids %>% 
  left_join(data_df %>% select(doc_id, Category))

Joining with `by = join_by(doc_id)`

output_train_labels 

# A tibble: 1,780 × 2
   doc_id Category     
    <int> <chr>        
 1    503 business     
 2   2035 tech         
 3    470 business     
 4   1990 tech         
 5   1540 sport        
 6    823 entertainment
 7   1122 politics     
 8    183 business     
 9   1528 sport        
10   1331 sport        
# ℹ 1,770 more rows

# do the same for the test set
output_test_labels <- test_ids %>% 
  left_join(data_df %>% select(doc_id, Category))

Joining with `by = join_by(doc_id)`

output_test_labels 

# A tibble: 445 × 2
   doc_id Category
    <int> <chr>   
 1      9 business
 2     10 business
 3     19 business
 4     27 business
 5     39 business
 6     40 business
 7     41 business
 8     45 business
 9     49 business
10     60 business
# ℹ 435 more rows
…
assess.glmnet(mod_fit1, sparse_test_dtm, output_test_labels$Category,
              family="multinomial")$class

[1] 0.06067416
attr(,"measure")
[1] "Misclassification Error"

We can also extract the values of the non-zero efficients from glmnet. Below is code to plot the top 10 coefficients for each class.

tidied_coefs <- tidy(mod_fit1$glmnet.fit, return_zeros=F)

tidied_coefs

# A tibble: 43,282 × 6
   class    term   step estimate lambda dev.ratio
   <chr>    <chr> <dbl>    <dbl>  <dbl>     <dbl>
 1 business ""        1    0.153  0.201  8.33e-15
 2 business ""        2    0.156  0.192  6.65e- 3
 3 business ""        3    0.160  0.183  1.33e- 2
 4 business ""        4    0.167  0.175  2.69e- 2
 5 business ""        5    0.182  0.167  5.24e- 2
 6 business ""        6    0.196  0.159  7.48e- 2
 7 business ""        7    0.210  0.152  9.74e- 2
 8 business ""        8    0.214  0.145  1.24e- 1
 9 business ""        9    0.219  0.139  1.50e- 1
10 business ""       10    0.218  0.132  1.77e- 1
# ℹ 43,272 more rows
…
