Tidyverse and Data Visualisation – RESM3002 Workshops
…
gdp_df <- read_csv("data/gdp_pc.csv")

gdp_df

Rows: 142 Columns: 14
── Column specification ────────────────────────────────────────────────────────
Delimiter: ","
chr  (2): country, continent
dbl (12): 1952, 1957, 1962, 1967, 1972, 1977, 1982, 1987, 1992, 1997, 2002, ...

ℹ Use `spec()` to retrieve the full column specification for this data.
ℹ Specify the column types or set `show_col_types = FALSE` to quiet this message.

# A tibble: 142 × 14
   country     continent `1952` `1957` `1962` `1967` `1972` `1977` `1982` `1987`
   <chr>       <chr>      <dbl>  <dbl>  <dbl>  <dbl>  <dbl>  <dbl>  <dbl>  <dbl>
 1 Afghanistan Asia        779.   821.   853.   836.   740.   786.   978.   852.
 2 Albania     Europe     1601.  1942.  2313.  2760.  3313.  3533.  3631.  3739.
 3 Algeria     Africa     2449.  3014.  2551.  3247.  4183.  4910.  5745.  5681.
 4 Angola      Africa     3521.  3828.  4269.  5523.  5473.  3009.  2757.  2430.
 5 Argentina   Americas   5911.  6857.  7133.  8053.  9443. 10079.  8998.  9140.
 6 Australia   Oceania   10040. 10950. 12217. 14526. 16789. 18334. 19477. 21889.
 7 Austria     Europe     6137.  8843. 10751. 12835. 16662. 19749. 21597. 23688.
 8 Bahrain     Asia       9867. 11636. 12753. 14805. 18269. 19340. 19211. 18524.
 9 Bangladesh  Asia        684.   662.   686.   721.   630.   660.   677.   752.
10 Belgium     Europe     8343.  9715. 10991. 13149. 16672. 19118. 20980. 22526.
# ℹ 132 more rows
# ℹ 4 more variables: `1992` <dbl>, `1997` <dbl>, `2002` <dbl>, `2007` <dbl>

We can see that this data is not in ‘tidy’ format.

The columns ‘1952’,‘1957’, …, etc give each provide different sets of observations of the same variable (GDP per capita).

Therefore, we would like to convert this plot to tidy format using the pivot_longer function from the tidyr package.

gdp_tidy_df <- gdp_df %>% 
  # select all columns except country and continent
  pivot_longer(-c(country, continent),
               names_to="year",
               values_to="gdp_per_cap")
gdp_tidy_df

# A tibble: 1,704 × 4
   country     continent year  gdp_per_cap
   <chr>       <chr>     <chr>       <dbl>
 1 Afghanistan Asia      1952         779.
 2 Afghanistan Asia      1957         821.
 3 Afghanistan Asia      1962         853.
 4 Afghanistan Asia      1967         836.
 5 Afghanistan Asia      1972         740.
 6 Afghanistan Asia      1977         786.
 7 Afghanistan Asia      1982         978.
 8 Afghanistan Asia      1987         852.
 9 Afghanistan Asia      1992         649.
10 Afghanistan Asia      1997         635.
# ℹ 1,694 more rows
…
We might like to find out the number of observations in each group.

We can subset the data to find a specific year.

gdp_tidy_df %>% 
  # choose only those rows where the condition year==max(year) holds
  # (i.e. the latest year)
  filter(year==max(year)) %>%
  # arrange in order of gdp per capita, 
  # in descending order (without the `-`, we would have smallest first) 
  arrange(-gdp_per_cap)

# A tibble: 142 × 4
   country          continent year  gdp_per_cap
   <chr>            <chr>     <chr>       <dbl>
 1 Norway           Europe    2007       49357.
 2 Kuwait           Asia      2007       47307.
 3 Singapore        Asia      2007       47143.
 4 United States    Americas  2007       42952.
 5 Ireland          Europe    2007       40676.
 6 Hong Kong, China Asia      2007       39725.
 7 Switzerland      Europe    2007       37506.
 8 Netherlands      Europe    2007       36798.
 9 Canada           Americas  2007       36319.
10 Iceland          Europe    2007       36181.
# ℹ 132 more rows

We will calculate mean gdp by continent[^1], so will use the group_by function to create groups based on the continent column. Any subsequent calculations we carry out on that data frame will be conducted separately for each group, as though we were working on separate dataframes.

gdp_tidy_df %>% 
  group_by(continent)

# A tibble: 1,704 × 4
# Groups:   continent [5]
   country     continent year  gdp_per_cap
   <chr>       <chr>     <chr>       <dbl>
 1 Afghanistan Asia      1952         779.
 2 Afghanistan Asia      1957         821.
 3 Afghanistan Asia      1962         853.
 4 Afghanistan Asia      1967         836.
 5 Afghanistan Asia      1972         740.
 6 Afghanistan Asia      1977         786.
 7 Afghanistan Asia      1982         978.
 8 Afghanistan Asia      1987         852.
 9 Afghanistan Asia      1992         649.
10 Afghanistan Asia      1997         635.
# ℹ 1,694 more rows
…
Rows: 142 Columns: 14
── Column specification ────────────────────────────────────────────────────────
Delimiter: ","
chr  (2): country, continent
dbl (12): 1952, 1957, 1962, 1967, 1972, 1977, 1982, 1987, 1992, 1997, 2002, ...

ℹ Use `spec()` to retrieve the full column specification for this data.
ℹ Specify the column types or set `show_col_types = FALSE` to quiet this message.

# A tibble: 1,704 × 4
   country     continent year  population
   <chr>       <chr>     <chr>      <dbl>
 1 Afghanistan Asia      1952     8425333
 2 Afghanistan Asia      1957     9240934
 3 Afghanistan Asia      1962    10267083
 4 Afghanistan Asia      1967    11537966
 5 Afghanistan Asia      1972    13079460
 6 Afghanistan Asia      1977    14880372
 7 Afghanistan Asia      1982    12881816
 8 Afghanistan Asia      1987    13867957
 9 Afghanistan Asia      1992    16317921
10 Afghanistan Asia      1997    22227415
# ℹ 1,694 more rows

We would like to combine this with the data on gdp.

We can do this using the join functions from dplyr.

country_df <- gdp_tidy_df %>% 
  left_join(pop_tidy_df)

Joining with `by = join_by(country, continent, year)`

country_df

# A tibble: 1,704 × 5
   country     continent year  gdp_per_cap population
   <chr>       <chr>     <chr>       <dbl>      <dbl>
 1 Afghanistan Asia      1952         779.    8425333
 2 Afghanistan Asia      1957         821.    9240934
 3 Afghanistan Asia      1962         853.   10267083
 4 Afghanistan Asia      1967         836.   11537966
 5 Afghanistan Asia      1972         740.   13079460
 6 Afghanistan Asia      1977         786.   14880372
 7 Afghanistan Asia      1982         978.   12881816
 8 Afghanistan Asia      1987         852.   13867957
 9 Afghanistan Asia      1992         649.   16317921
10 Afghanistan Asia      1997         635.   22227415
# ℹ 1,694 more rows
…
country_df <- country_df %>% 
  left_join(life_exp_df)
country_df

Rows: 142 Columns: 14
── Column specification ────────────────────────────────────────────────────────
Delimiter: ","
chr  (2): country, continent
dbl (12): 1952, 1957, 1962, 1967, 1972, 1977, 1982, 1987, 1992, 1997, 2002, ...

ℹ Use `spec()` to retrieve the full column specification for this data.
ℹ Specify the column types or set `show_col_types = FALSE` to quiet this message.
Joining with `by = join_by(country, continent, year)`

# A tibble: 1,704 × 6
   country     continent year  gdp_per_cap population life_expectancy
   <chr>       <chr>     <chr>       <dbl>      <dbl>           <dbl>
 1 Afghanistan Asia      1952         779.    8425333            28.8
 2 Afghanistan Asia      1957         821.    9240934            30.3
 3 Afghanistan Asia      1962         853.   10267083            32.0
 4 Afghanistan Asia      1967         836.   11537966            34.0
 5 Afghanistan Asia      1972         740.   13079460            36.1
 6 Afghanistan Asia      1977         786.   14880372            38.4
 7 Afghanistan Asia      1982         978.   12881816            39.9
 8 Afghanistan Asia      1987         852.   13867957            40.8
 9 Afghanistan Asia      1992         649.   16317921            41.7
10 Afghanistan Asia      1997         635.   22227415            41.8
# ℹ 1,694 more rows
…
