Web Scraping – RESM3002 Workshops
…
quote_df <- get_quote_text(1,polite_connection)

for (i in 2:10){
  new_quote_df <- get_quote_text(i, polite_connection)
  quote_df <- rbind(quote_df, new_quote_df)
  
}

dim(quote_df)

[1] 100   2

quote_df

# A tibble: 100 × 2
   Author            Quote_text                                                 
   <chr>             <chr>                                                      
 1 Albert Einstein   “The world as we have created it is a process of our think…
 2 J.K. Rowling      “It is our choices, Harry, that show what we truly are, fa…
 3 Albert Einstein   “There are only two ways to live your life. One is as thou…
 4 Jane Austen       “The person, be it gentleman or lady, who has not pleasure…
 5 Marilyn Monroe    “Imperfection is beauty, madness is genius and it's better…
 6 Albert Einstein   “Try not to become a man of success. Rather become a man o…
 7 André Gide        “It is better to be hated for what you are than to be love…
 8 Thomas A. Edison  “I have not failed. I've just found 10,000 ways that won't…
 9 Eleanor Roosevelt “A woman is like a tea bag; you never know how strong it i…
10 Steve Martin      “A day without sunshine is like, you know, night.”         
# ℹ 90 more rows
…
dim(quote_df)

[1] 100   2

quote_df

# A tibble: 100 × 2
   Author            Quote_text                                                 
   <chr>             <chr>                                                      
 1 Albert Einstein   “The world as we have created it is a process of our think…
 2 J.K. Rowling      “It is our choices, Harry, that show what we truly are, fa…
 3 Albert Einstein   “There are only two ways to live your life. One is as thou…
 4 Jane Austen       “The person, be it gentleman or lady, who has not pleasure…
 5 Marilyn Monroe    “Imperfection is beauty, madness is genius and it's better…
 6 Albert Einstein   “Try not to become a man of success. Rather become a man o…
 7 André Gide        “It is better to be hated for what you are than to be love…
 8 Thomas A. Edison  “I have not failed. I've just found 10,000 ways that won't…
 9 Eleanor Roosevelt “A woman is like a tea bag; you never know how strong it i…
10 Steve Martin      “A day without sunshine is like, you know, night.”         
# ℹ 90 more rows
…
